[
    {
        "name": "product 1",
        "price": "100",
        "src": "./p1.jpg",
        "artikel": "1",
        "color": "red"
    },
    {
        "name": "product 2",
        "price": "140",
        "src": "./p2.png",
        "artikel": "2",
        "color": "green"
    },
    {
        "name": "product 4",
        "price": "300",
        "src": "./p4.jpg",
        "artikel": "4",
        "color": "colorful"
    },
    {
        "name": "product 6",
        "price": "780",
        "src": "./p6.jpg",
        "artikel": "6",
        "color": "white"
    },
    {
        "name": "product 7",
        "price": "600",
        "src": "./p7.jpg",
        "artikel": "7",
        "color": "red"
    },
    {
        "name": "product 10",
        "price": "290",
        "src": "./p10.jpg",
        "artikel": "10",
        "color": "red"
    },
    {
        "name": "product 13",
        "price": "400",
        "src": "./p13.jpg",
        "artikel": "13",
        "color": "white"
    },
    {
        "name": "product 14",
        "price": "300",
        "src": "./p14.jpg",
        "artikel": "14",
        "color": "colorful"
    },
    {
        "name": "product 16",
        "price": "500",
        "src": "./p16.jpg",
        "artikel": "16",
        "color": "green"
    },
    {
        "name": "product 18",
        "price": "600",
        "src": "./p18.jpg",
        "artikel": "18",
        "color": "pink"
    },
    {
        "name": "product 20",
        "price": "100",
        "src": "./p20.jpg",
        "artikel": "20",
        "color": "pink"
    },
    {
        "name": "product 21",
        "price": "290",
        "src": "./p21.png",
        "artikel": "21",
        "color": "colorful"
    },
    {
        "name": "product 22",
        "price": "710",
        "src": "./p22.png",
        "artikel": "22",
        "color": "pink"
    },
    {
        "name": "product 23",
        "price": "100",
        "src": "./p23.png",
        "artikel": "23",
        "color": "colorful"
    },
    {
        "name": "product 24",
        "price": "100",
        "src": "./p24.png",
        "artikel": "24",
        "color": "white"
    },
    {
        "name": "product 25",
        "price": "100",
        "src": "./p25.png",
        "artikel": "25",
        "color": "colorful"
    },
    {
        "name": "product 26",
        "price": "140",
        "src": "./p26.png",
        "artikel": "26",
        "color": "white"
    },
    {
        "name": "product 27",
        "price": "400",
        "src": "./p27.png",
        "artikel": "27",
        "color": "white"
    },
    {
        "name": "product 28",
        "price": "300",
        "src": "./p28.png",
        "artikel": "28",
        "color": "red"
    },
    {
        "name": "product 29",
        "price": "500",
        "src": "./p29.png",
        "artikel": "29",
        "color": "pink"
    },
    {
        "name": "product 30",
        "price": "780",
        "src": "./p30.png",
        "artikel": "30",
        "color": "pink"
    },
    {
        "name": "product 31",
        "price": "600",
        "src": "./p31.png",
        "artikel": "31",
        "color": "green"
    },
    {
        "name": "product 32",
        "price": "450",
        "src": "./p32.png",
        "artikel": "32",
        "color": "red"
    },
    {
        "name": "product 33",
        "price": "100",
        "src": "./p33.png",
        "artikel": "33",
        "color": "green"
    },
    {
        "name": "product 34",
        "price": "290",
        "src": "./p34.png",
        "artikel": "34",
        "color": "green"
    },
    {
        "name": "product 35",
        "price": "710",
        "src": "./p35.png",
        "artikel": "35",
        "color": "red"
    },
    {
        "name": "product 3",
        "price": "450",
        "src": "./p3.jpg",
        "artikel": "3",
        "color": "colorful"
    },
    {
        "name": "product 36",
        "price": "710",
        "src": "./p36.png",
        "artikel": "36",
        "color": "white"
    }
    
]

